%YAML 1.1
%TAG !u! tag:unity3d.com,2011:
--- !u!78 &1
TagManager:
  serializedVersion: 2
  tags:
  - Fade
  - Background
  - Layer
  - this
  - PhotoCamera
  layers:
  - Default
  - TransparentFX
  - Ignore Raycast
  - PostProcess
  - Water
  - UI
  - Score
  - Controller
  - 
  - 
  - 
  - 
  - 
  - 
  - 
  - 
  - 
  - 
  - 
  - 
  - 
  - 
  - 
  - 
  - 
  - 
  - 
  - 
  - 
  - 
  - 
  - 
  m_SortingLayers:
  - name: Default
    uniqueID: 0
    locked: 0
