0
0
0
0
0
0
0
0
0
0
0
0
0
0
0
0
0
0
0
0
0.0018
0.00176
0.00172
0.00168
0.00164
0.0016
0.00168
0.00176
0.00184
0.00192
0.002
0.00202
0.00204
0.00206
0.00208
0.0021
0.00218
0.00226
0.00234
0.00242
0.0025
0.0026
0.0027
0.0028
0.0029
0.003
0.00326
0.00352
0.00378
0.00404
0.0043
0.00462
0.00494
0.00526
0.00558
0.0059
0.0063
0.0067
0.0071
0.0075
0.0079
0.0084
0.0089
0.0094
0.0099
0.0104
0.01084
0.01128
0.01172
0.01216
0.0126
0.01302
0.01344
0.01386
0.01428
0.0147
0.01516
0.01562
0.01608
0.01654
0.017
0.01742
0.01784
0.01826
0.01868
0.0191
0.01968
0.02026
0.02084
0.02142
0.022
0.02294
0.02388
0.02482
0.02576
0.0267
0.02816
0.02962
0.03108
0.03254
0.034
0.03644
0.03888
0.04132
0.04376
0.0462
0.04994
0.05368
0.05742
0.06116
0.0649
0.07064
0.07638
0.08212
0.08786
0.0936
0.10178
0.10996
0.11814
0.12632
0.1345
0.14484
0.15518
0.16552
0.17586
0.1862
0.19866
0.21112
0.22358
0.23604
0.2485
0.2626
0.2767
0.2908
0.3049
0.319
0.33448
0.34996
0.36544
0.38092
0.3964
0.41094
0.42548
0.44002
0.45456
0.4691
0.48138
0.49366
0.50594
0.51822
0.5305
0.54092
0.55134
0.56176
0.57218
0.5826
0.58998
0.59736
0.60474
0.61212
0.6195
0.62332
0.62714
0.63096
0.63478
0.6386
0.63916
0.63972
0.64028
0.64084
0.6414
0.64008
0.63876
0.63744
0.63612
0.6348
0.63162
0.62844
0.62526
0.62208
0.6189
0.61376
0.60862
0.60348
0.59834
0.5932
0.5858
0.5784
0.571
0.5636
0.5562
0.54782
0.53944
0.53106
0.52268
0.5143
0.50356
0.49282
0.48208
0.47134
0.4606
0.44834
0.43608
0.42382
0.41156
0.3993
0.38538
0.37146
0.35754
0.34362
0.3297
0.31814
0.30658
0.29502
0.28346
0.2719
0.2618
0.2517
0.2416
0.2315
0.2214
0.2125
0.2036
0.1947
0.1858
0.1769
0.16966
0.16242
0.15518
0.14794
0.1407
0.13566
0.13062
0.12558
0.12054
0.1155
0.11116
0.10682
0.10248
0.09814
0.0938
0.09022
0.08664
0.08306
0.07948
0.0759
0.073
0.0701
0.0672
0.0643
0.0614
0.05956
0.05772
0.05588
0.05404
0.0522
0.05086
0.04952
0.04818
0.04684
0.0455
0.04514
0.04478
0.04442
0.04406
0.0437
0.04052
0.03734
0.03416
0.03098
0.0278
0.02584
0.02388
0.02192
0.01996
0.018
0.01712
0.01624
0.01536
0.01448
0.0136
0.01302
0.01244
0.01186
0.01128
0.0107
0.01026
0.00982
0.00938
0.00894
0.0085
0.00814
0.00778
0.00742
0.00706
0.0067
0.00646
0.00622
0.00598
0.00574
0.0055
0.00528
0.00506
0.00484
0.00462
0.0044
0.0043
0.0042
0.0041
0.004
0.0039
0.00378
0.00366
0.00354
0.00342
0.0033
0.00324
0.00318
0.00312
0.00306
0.003
0.00296
0.00292
0.00288
0.00284
0.0028
0.0027
0.0026
0.0025
0.0024
0.0023
0.0024
0.0025
0.0026
0.0027
0.0028
0.0038
0.0048
0.0058
0.0068
0.0078
0.0085
0.0092
0.0099
0.0106
0.0113
0.00982
0.00834
0.00686
0.00538
0.0039
0.00334
0.00278
0.00222
0.00166
0.0011
0.00106
0.00102
0.00098
0.00094
0.0009
0.00088
0.00086
0.00084
0.00082
0.0008
0.00082
0.00084
0.00086
0.00088
0.0009
0.00094
0.00098
0.00102
0.00106
0.0011
0.00106
0.00102
0.00098
0.00094
0.0009
0.00092
0.00094
0.00096
0.00098
0.001
0.00102
0.00104
0.00106
0.00108
0.0011
0.00114
0.00118
0.00122
0.00126
0.0013
0.00134
0.00138
0.00142
0.00146
0.0015
0.00156
0.00162
0.00168
0.00174
0.0018
0.00186
0.00192
0.00198
0.00204
0.0021
0.00198
0.00186
0.00174
0.00162
0.0015
0.00156
0.00162
0.00168
0.00174
0.0018
0
0
0
0
0
0
0
0
0
0
0
0
0
0
0
0
0
0
0
0
0
0
0
0
0
0
0
0
0
0
0
0
0
0
0
0
0
0
0
0
0
0
0
0
0
0
0
0
0
0
0
0
0
0
0
0
0
0
0
0
0
0
0
0
0